Chapter 4: Data Manipulation with tidyverse | Introduction to R and analytic Programming
…
data2 <-data[c(1:10,25:34, 41:50),colnames(data) %in% c("donor", "tissue", "layer", 'group', "CD3", "CD4", "CD8")]

Currently, the data is in what we might consider wide format. We have one row per tissue layer and columns for our CD3, CD4, CD8 cell counts. We’ll start by mutating extra columns to get the CD4 and Cd8 percentages and then making it long, so that we get one column called “percent” with CD4 and CD8 in a different single column called “subset”. This is a format then compatible with ggplot.

Code

data2 %>% 
  mutate(percent_CD4 = 100*CD4/CD3, percent_CD8 = 100*CD8/CD3) %>%
  pivot_longer(cols = c(percent_CD4, percent_CD8), #which columns to choose for elongating
               names_to = "subset", # name of new column containing names
               values_to = "percent") %>% # name of new column containing values
  print()

## # A tibble: 60 × 9
##    donor  tissue  layer      group    CD3   CD8   CD4 subset      percent
##    <chr>  <chr>   <chr>      <chr>  <int> <int> <int> <chr>         <dbl>
##  1 Donor1 Abdomen Epithelium A_E     4460  2205  2184 percent_CD4    49.0
##  2 Donor1 Abdomen Epithelium A_E     4460  2205  2184 percent_CD8    49.4
##  3 Donor1 Abdomen Underlying A_UM   15295  7960  5529 percent_CD4    36.1
##  4 Donor1 Abdomen Underlying A_UM   15295  7960  5529 percent_CD8    52.0
##  5 Donor2 Abdomen Epithelium A_E    49774 25149 25251 percent_CD4    50.7
##  6 Donor2 Abdomen Epithelium A_E    49774 25149 25251 percent_CD8    50.5
##  7 Donor2 Abdomen Underlying A_UM   68879 47729 33616 percent_CD4    48.8
##  8 Donor2 Abdomen Underlying A_UM   68879 47729 33616 percent_CD8    69.3
##  9 Donor3 Abdomen Epithelium A_E   208665 92410 84610 percent_CD4    40.5
## 10 Donor3 Abdomen Epithelium A_E   208665 92410 84610 percent_CD8    44.3
## # ℹ 50 more rows
…
